-64 920
-48 72 -56 -56 -72 -56 -64 -64 -80 352
-48 936
-72 24 -72 -64 -80 -72 560
40 -8 8 -80 -48 -56 -80 -16 -24 -80 472
32 -8 8 -8 -72 -40 -40 -80 -24 -16 584
112 -64 -72 -72 640
88 -56 -48 -40 -48 -48 -80 528
16 -16 -80 -48 -8 -40 -32 -72 -16 -32 -24 520
-16 -8 -48 896
8 -16 -80 -48 -32 -40 -80 -40 -48 528
-56 16 -24 -72 -56 -40 -24 -72 -16 -40 -32 -32 416
-40 96 -48 -8 -80 -72 600
-56 928
992
992
64 -64 -56 -64 712
56 -24 -72 -64 -64 -24 -56 -64 504
-32 32 -72 -40 -64 -72 632
-8 -56 -80 -80 -32 -80 608
