88 -48 24 -32 768
-80 -80 -80 -80 48 -400 -80 88
992
-400 -16 560
80 -40 592 -16 232
-32 -160 -24 752
-80 -16 -80 792
80 -160 -80 -24 16 -8 576
992
992
-32 528 -80 328
192 -104 -120 -488 56
320 -120 40 -104 -112 256
-184 -96 168 -32 -16 -8 440
-104 152 -96 8 -8 -8 -8 -88 -8 -8 -8 408
-88 -168 720
24 -16 -32 -56 -72 -8 -24 -40 -32 16 -8 -24 544
-256 56 -96 16 -40 -32 -24 416
-168 -424 384
-8 184 -32 16 -8 -32 40 -48 560
