20

8
2
10
4
-3
6
-1
-1

50
50
-1
10
10
10
10
10

10
10
10
10
10
10
10
10
-1
-1
-1
-1
-1
-1
-1
-1

50
71
-2
2

10
80
2
-2
5
-1

4
20
3
4
-4

10
2
10
2
2
-4
-4

10
20
10
3
2
1
-1
-4

100
-1

80
-1
80
-1
80
-1
80
-1
80
-1
80
-1

30
40
-1
20
10
-1
-1
4

24
13
16
-3
15
61
-1

68
-1
40
21
13
14
-2
15
-1

32
12
-1
23
-2
12
21
4
2
1
-3

13
19
12
1
1
1
1
11
1
1
1
-4
-2

32
33
34
-1
-2
-1
11
21
43
-3

21
-1
3
2
4
7
9
1
3
5
7
1
3
-9
4
-1

32
10
-2
23
5
-2
1
5
-2
12
4
-2
4
3
-2

21
32
-2
50
-2
53

1
23
4
2
1
4
5
6
-2
-3
-5
