30

29
-1
93
-1
2
18
7
12
-3
-2
1

104
-1
7
44
-2
7
44
10
-1
9

3
120
-1
1
-1
2
-2

6
100
6
-3
7
-2

99
-1
69
14

67

104
6

114

119
-1
2

83

112

99

111
-1

60

103

12
-1
12
-1
12
-1
12
-1
12
-1
12
-1
12
-1

9
9
9
9
8
8
8
1
-1
9
-1
8
-1
9
-1
2

18
105
-2
12
67
-2
11

79

9
-1
51

111

1
2
3
4
5
6
-1
-1
-1
-2
-1

89
8
1
1
1
-2
-3
-2

9
63

21
43
15
14

108
13
-1
48
1
2
3
-2
1
-1

20
1
1
1
1
1
1
1
1
1
1
1
1
1
1
1
-5
-6
-3
-4

41
-1
106
-1
24
15
44
-3

78
19
-1
14
36

6
29
48
-3
13
14
-4
35
-2
-2
6
