23

20
8
2
-3
1

11
2
-1
7
9
-2
13
-1
2

7
9
1
-1
-1
3
2
-2
19

5
10
15
-3
-1
2

2
3
4
1
-4
2
-1
1

8
8
8
-1
1
2

100
-1
1
1
1
1
100

36
54
-2
-1

50
25
-2

9
23
-2
-1
1

4
3
9
7
-2
-2
-1
4

7
2
-1
1
1
9

2
5
-1
3
8
-2
11
-1
-1
16
2

90
-1
76
14
-1

3
9
13
-1
2
-2
1
8
-4

23
34
13
30
-4
-2
-1
20

5
12
70
-2
10
3
-2
13
10
1
2
9
-2
-4

34
30
5
9
-1
15
-1
20
-2

74
-1
20
-1
23
65

87
13
-2
13
-2
19
-1
51
29

9
21
13
-1
20
-1
17
42
-2
18
13
-1
-2
10
13
2

42
1
-1
29
18
-1
21
-2
13
26
-1
-2
-1
19

36
34
-1
15
-2
-1
9
20
-2
2
1
-2
-2
