992
456 -32 488
-200 -112 664
-176 808
-536 -264 176
-632 -80 264
-256 -320 -80 -24 -24 -8 232
-264 -96 616
-240 -24 -16 -40 -32 -72 -72 -80 352
-176 -160 -8 -80 536
-16 -24 -72 24 -208 608
440 -80 -16 -96 328
-240 -16 -24 688
-832 -32 -8 -8 80
-272 -96 -8 -72 360 -24 112
376 -80 -72 440
-96 -32 -32 272 -256 -80 176
-312 672
-8 -8 -8 -64 552 -80 224
264 -176 -96 432
72 -16 360 -72 440
-16 -24 -32 -40 520 -24 -32 -40 200
-448 80 -72 368
144 -16 -40 -56 -64 632
-96 552 -80 -80 152
320 -240 416
-648 -200 -32 88
-408 -96 -80 -24 -24 320
-16 -16 696 -80 152
