-784 200
992
-96 -184 -96 -416 -56 104
-192 352 -160 264
-336 -16 232 -256 120
-176 8 -240 168 -120 240
-152 832
-144 -304 -392 128
-344 -320 312
56 -192 -256 -192 264
992
16 -248 24 -8 -8 -8 632
-664 320
-24 960
-288 -336 352
992
-32 32 -32 -32 32 -32 -32 712
376 -72 528
64 -176 288 -192 -88 144
992
-272 712
-944 40
704 -192 80
-856 128
992
-904 80
-240 -640 96
-424 -160 -152 16 -80 120
32 -8 -8 -8 -16 -560 -8 -192 96
48 -8 88 -104 40 -176 -88 -264 -40 -16 40
